XADC_TEST/.Xil/Vivado-19880-LAPTOP-DUUNQKAE/hw_ila_data_1/zip_work/waveform.vcd
$date
        2024-Nov-09 19:23:55
$end
$version
        Vivado v2023.1 (64-bit)
$end
$timescale
        1ps
$end
$scope module dut $end
$var reg 12 " xadc_vauxp9_value [11:0] $end
$var reg 12 . xadc_vauxp8_value [11:0] $end
$var reg 12 : xadc_vauxp10_value [11:0] $end
$var reg 1 F drdy_out $end
$var reg 1 G _TRIGGER $end
$var reg 1 H _WINDOW $end
$var reg 1 I _GAP $end
$upscope $end
$enddefinitions $end
#0
$dumpvars
b0 "
b0 .
b101111001 :
0F
0G
1H
0I
$end
#62
1F
#63
0F
#166
1F
#167
0F
#270
1F
#271
b101111000 :
0F
#374
1F
#375
0F
#478
1F
#479
0F
#582
1F
#583
0F
#686
1F
#687
0F
#790
1F
#791
0F
#894
1F
#895
b101111010 :
0F
#998
1F
#999
0F
#1102
1F
#1103
0F
#1206
1F
#1207
b101111001 :
0F
#1310
1F
#1311
0F
#1414
1F
#1415
0F
#1518
1F
#1519
b101111011 :
0F
#1622
1F
#1623
0F
#1726
1F
#1727
0F
#1830
1F
#1831
b101111010 :
0F
#1934
1F
#1935
0F
#2038
1F
#2039
0F
#2142
1F
#2143
b101111000 :
0F
#2246
1F
#2247
0F
#2350
1F
#2351
0F
#2454
1F
#2455
b101111010 :
0F
#2558
1F
#2559
0F
#2662
1F
#2663
0F
#2766
1F
#2767
b101111001 :
0F
#2870
1F
#2871
0F
#2974
1F
#2975
0F
#3078
1F
#3079
b101111011 :
0F
#3182
1F
#3183
0F
#3286
1F
#3287
0F
#3390
1F
#3391
b101111010 :
0F
#3494
1F
#3495
0F
#3598
1F
#3599
0F
#3702
1F
#3703
b101111001 :
0F
#3806
1F
#3807
0F
#3910
1F
#3911
0F
#4014
1F
#4015
b101111000 :
0F
#4096
1G
#4118
1F
#4119
0F
#4222
1F
#4223
0F
#4326
1F
#4327
0F
#4430
1F
#4431
0F
#4534
1F
#4535
0F
#4638
1F
#4639
b101111010 :
0F
#4742
1F
#4743
0F
#4846
1F
#4847
0F
#4950
1F
#4951
0F
#5054
1F
#5055
0F
#5158
1F
#5159
0F
#5262
1F
#5263
b101111001 :
0F
#5366
1F
#5367
0F
#5470
1F
#5471
0F
#5574
1F
#5575
b101110111 :
0F
#5678
1F
#5679
0F
#5782
1F
#5783
0F
#5886
1F
#5887
b101111000 :
0F
#5990
1F
#5991
0F
#6094
1F
#6095
0F
#6198
1F
#6199
b101111010 :
0F
#6302
1F
#6303
0F
#6406
1F
#6407
0F
#6510
1F
#6511
b101111001 :
0F
#6614
1F
#6615
0F
#6718
1F
#6719
0F
#6822
1F
#6823
0F
#6926
1F
#6927
0F
#7030
1F
#7031
0F
#7134
1F
#7135
0F
#7238
1F
#7239
0F
#7342
1F
#7343
0F
#7446
1F
#7447
0F
#7550
1F
#7551
0F
#7654
1F
#7655
0F
#7758
1F
#7759
b101111000 :
0F
#7862
1F
#7863
0F
#7966
1F
#7967
0F
#8070
1F
#8071
b101111010 :
0F
#8174
1F
#8175
0F
