XADC_TEST/.Xil/Vivado-5716-LAPTOP-DUUNQKAE/hw_ila_data_1/zip_work/waveform.vcd
$date
        2024-Nov-09 19:28:18
$end
$version
        Vivado v2023.1 (64-bit)
$end
$timescale
        1ps
$end
$scope module dut $end
$var reg 12 " xadc_vauxp9_value [11:0] $end
$var reg 12 . xadc_vauxp8_value [11:0] $end
$var reg 12 : xadc_vauxp10_value [11:0] $end
$var reg 1 F drdy_out $end
$var reg 1 G _TRIGGER $end
$var reg 1 H _WINDOW $end
$var reg 1 I _GAP $end
$upscope $end
$enddefinitions $end
#0
$dumpvars
b0 "
b0 .
b101111010 :
0F
0G
1H
0I
$end
#100
1F
#101
0F
#204
1F
#205
0F
#308
1F
#309
b101111011 :
0F
#412
1F
#413
0F
#516
1F
#517
0F
#620
1F
#621
b101111010 :
0F
#724
1F
#725
0F
#828
1F
#829
0F
#932
1F
#933
b101110110 :
0F
#1036
1F
#1037
0F
#1140
1F
#1141
0F
#1244
1F
#1245
0F
#1348
1F
#1349
0F
#1452
1F
#1453
0F
#1556
1F
#1557
b101111001 :
0F
#1660
1F
#1661
0F
#1764
1F
#1765
0F
#1868
1F
#1869
b101111010 :
0F
#1972
1F
#1973
0F
#2076
1F
#2077
0F
#2180
1F
#2181
0F
#2284
1F
#2285
0F
#2388
1F
#2389
0F
#2492
1F
#2493
0F
#2596
1F
#2597
0F
#2700
1F
#2701
0F
#2804
1F
#2805
b101111000 :
0F
#2908
1F
#2909
0F
#3012
1F
#3013
0F
#3116
1F
#3117
0F
#3220
1F
#3221
0F
#3324
1F
#3325
0F
#3428
1F
#3429
b101110111 :
0F
#3532
1F
#3533
0F
#3636
1F
#3637
0F
#3740
1F
#3741
b101111010 :
0F
#3844
1F
#3845
0F
#3948
1F
#3949
0F
#4052
1F
#4053
b101111001 :
0F
#4096
1G
#4156
1F
#4157
0F
#4260
1F
#4261
0F
#4364
1F
#4365
b101111010 :
0F
#4468
1F
#4469
0F
#4572
1F
#4573
0F
#4676
1F
#4677
b101111001 :
0F
#4780
1F
#4781
0F
#4884
1F
#4885
0F
#4988
1F
#4989
b101111000 :
0F
#5092
1F
#5093
0F
#5196
1F
#5197
0F
#5300
1F
#5301
0F
#5404
1F
#5405
0F
#5508
1F
#5509
0F
#5612
1F
#5613
0F
#5716
1F
#5717
0F
#5820
1F
#5821
0F
#5924
1F
#5925
b101111010 :
0F
#6028
1F
#6029
0F
#6132
1F
#6133
0F
#6236
1F
#6237
b101110111 :
0F
#6340
1F
#6341
0F
#6444
1F
#6445
0F
#6548
1F
#6549
b101111000 :
0F
#6652
1F
#6653
0F
#6756
1F
#6757
0F
#6860
1F
#6861
b101111001 :
0F
#6964
1F
#6965
0F
#7068
1F
#7069
0F
#7172
1F
#7173
0F
#7276
1F
#7277
0F
#7380
1F
#7381
0F
#7484
1F
#7485
b101110111 :
0F
#7588
1F
#7589
0F
#7692
1F
#7693
0F
#7796
1F
#7797
b101111010 :
0F
#7900
1F
#7901
0F
#8004
1F
#8005
0F
#8108
1F
#8109
b101111011 :
0F
