XADC_TEST/.Xil/Vivado-456-LAPTOP-DUUNQKAE/hw_ila_data_1/zip_work/waveform.vcd
$date
        2024-Nov-07 22:50:19
$end
$version
        Vivado v2023.1 (64-bit)
$end
$timescale
        1ps
$end
$scope module dut $end
$var reg 12 " xadc_vauxp9_value [11:0] $end
$var reg 12 . xadc_vauxp8_value [11:0] $end
$var reg 12 : xadc_vauxp10_value [11:0] $end
$var reg 1 F drdy_out $end
$var reg 1 G _TRIGGER $end
$var reg 1 H _WINDOW $end
$var reg 1 I _GAP $end
$upscope $end
$enddefinitions $end
#0
$dumpvars
b0 "
b0 .
b101111001 :
0F
0G
1H
0I
$end
#29
1F
#30
0F
#133
1F
#134
0F
#237
1F
#238
b101110111 :
0F
#341
1F
#342
0F
#445
1F
#446
0F
#549
1F
#550
b101111011 :
0F
#653
1F
#654
0F
#757
1F
#758
0F
#861
1F
#862
b101111001 :
0F
#965
1F
#966
0F
#1069
1F
#1070
0F
#1173
1F
#1174
b101111100 :
0F
#1277
1F
#1278
0F
#1381
1F
#1382
0F
#1485
1F
#1486
b101111000 :
0F
#1589
1F
#1590
0F
#1693
1F
#1694
0F
#1797
1F
#1798
0F
#1901
1F
#1902
0F
#2005
1F
#2006
0F
#2109
1F
#2110
b101111010 :
0F
#2213
1F
#2214
0F
#2317
1F
#2318
0F
#2421
1F
#2422
b101111000 :
0F
#2525
1F
#2526
0F
#2629
1F
#2630
0F
#2733
1F
#2734
b101110110 :
0F
#2837
1F
#2838
0F
#2941
1F
#2942
0F
#3045
1F
#3046
b101111001 :
0F
#3149
1F
#3150
0F
#3253
1F
#3254
0F
#3357
1F
#3358
b101111010 :
0F
#3461
1F
#3462
0F
#3565
1F
#3566
0F
#3669
1F
#3670
b101111001 :
0F
#3773
1F
#3774
0F
#3877
1F
#3878
0F
#3981
1F
#3982
b101110111 :
0F
#4085
1F
#4086
0F
#4096
1G
#4189
1F
#4190
0F
#4293
1F
#4294
b101111000 :
0F
#4397
1F
#4398
0F
#4501
1F
#4502
0F
#4605
1F
#4606
b101111001 :
0F
#4709
1F
#4710
0F
#4813
1F
#4814
0F
#4917
1F
#4918
b101111011 :
0F
#5021
1F
#5022
0F
#5125
1F
#5126
0F
#5229
1F
#5230
0F
#5333
1F
#5334
0F
#5437
1F
#5438
0F
#5541
1F
#5542
b101111000 :
0F
#5645
1F
#5646
0F
#5749
1F
#5750
0F
#5853
1F
#5854
b101111010 :
0F
#5957
1F
#5958
0F
#6061
1F
#6062
0F
#6165
1F
#6166
b101110111 :
0F
#6269
1F
#6270
0F
#6373
1F
#6374
0F
#6477
1F
#6478
b101111000 :
0F
#6581
1F
#6582
0F
#6685
1F
#6686
0F
#6789
1F
#6790
0F
#6893
1F
#6894
0F
#6997
1F
#6998
0F
#7101
1F
#7102
b101111011 :
0F
#7205
1F
#7206
0F
#7309
1F
#7310
0F
#7413
1F
#7414
b101111001 :
0F
#7517
1F
#7518
0F
#7621
1F
#7622
0F
#7725
1F
#7726
0F
#7829
1F
#7830
0F
#7933
1F
#7934
0F
#8037
1F
#8038
b101110110 :
0F
#8141
1F
#8142
0F
