XADC_TEST/.Xil/Vivado-9392-LAPTOP-DUUNQKAE/hw_ila_data_1/zip_work/waveform.vcd
$date
        2024-Nov-09 20:26:32
$end
$version
        Vivado v2023.1 (64-bit)
$end
$timescale
        1ps
$end
$scope module dut $end
$var reg 12 " xadc_vauxp9_value [11:0] $end
$var reg 12 . xadc_vauxp8_value [11:0] $end
$var reg 12 : xadc_vauxp10_value [11:0] $end
$var reg 1 F drdy_out $end
$var reg 1 G _TRIGGER $end
$var reg 1 H _WINDOW $end
$var reg 1 I _GAP $end
$upscope $end
$enddefinitions $end
#0
$dumpvars
b11011001011 "
b11010001100 .
b11011101011 :
0F
0G
1H
0I
$end
#59
1F
#60
b11100101110 .
0F
#163
1F
#164
b11010111000 "
0F
#267
1F
#268
b11111100011 :
0F
#371
1F
#372
b100000111010 .
0F
#475
1F
#476
b11011011010 "
0F
#579
1F
#580
b100011101111 :
0F
#683
1F
#684
b100100111100 .
0F
#787
1F
#788
b11100100000 "
0F
#891
1F
#892
b100110100010 :
0F
#995
1F
#996
b100111000000 .
0F
#1099
1F
#1100
b11101101101 "
0F
#1203
1F
#1204
b100110101001 :
0F
#1307
1F
#1308
b100110000010 .
0F
#1411
1F
#1412
b11110011100 "
0F
#1515
1F
#1516
b100011111101 :
0F
#1619
1F
#1620
b100010100100 .
0F
#1723
1F
#1724
b11110010101 "
0F
#1827
1F
#1828
b11111101100 :
0F
#1931
1F
#1932
b11110010010 .
0F
#2035
1F
#2036
b11101100000 "
0F
#2139
1F
#2140
b11011110011 :
0F
#2243
1F
#2244
b11010111100 .
0F
#2347
1F
#2348
b11100011010 "
0F
#2451
1F
#2452
b11010000000 :
0F
#2555
1F
#2556
b11010000101 .
0F
#2659
1F
#2660
b11011010100 "
0F
#2763
1F
#2764
b11011001001 :
0F
#2867
1F
#2868
b11100001100 .
0F
#2971
1F
#2972
b11010111000 "
0F
#3075
1F
#3076
b11110110000 :
0F
#3179
1F
#3180
b100000100001 .
0F
#3283
1F
#3284
b11011010000 "
0F
#3387
1F
#3388
b100011000111 :
0F
#3491
1F
#3492
b100100010111 .
0F
#3595
1F
#3596
b11100010110 "
0F
#3699
1F
#3700
b100110010100 :
0F
#3803
1F
#3804
b100110110010 .
0F
#3907
1F
#3908
b11101100100 "
0F
#4011
1F
#4012
b100110110101 :
0F
#4096
1G
#4115
1F
#4116
b100110010110 .
0F
#4219
1F
#4220
b11110011001 "
0F
#4323
1F
#4324
b100100100000 :
0F
#4427
1F
#4428
b100011010001 .
0F
#4531
1F
#4532
b11110011110 "
0F
#4635
1F
#4636
b100000011011 :
0F
#4739
1F
#4740
b11110111000 .
0F
#4843
1F
#4844
b11101110010 "
0F
#4947
1F
#4948
b11100010011 :
0F
#5051
1F
#5052
b11011010001 .
0F
#5155
1F
#5156
b11100100001 "
0F
#5259
1F
#5260
b11010000101 :
0F
#5363
1F
#5364
b11010000010 .
0F
#5467
1F
#5468
b11011011111 "
0F
#5571
1F
#5572
b11010110010 :
0F
#5675
1F
#5676
b11011101010 .
0F
#5779
1F
#5780
b11010111101 "
0F
#5883
1F
#5884
b11110000011 :
0F
#5987
1F
#5988
b11111100000 .
0F
#6091
1F
#6092
b11011001110 "
0F
#6195
1F
#6196
b100010011101 :
0F
#6299
1F
#6300
b100011110100 .
0F
#6403
1F
#6404
b11100001001 "
0F
#6507
1F
#6508
b100101111010 :
0F
#6611
1F
#6612
b100110100011 .
0F
#6715
1F
#6716
b11101010011 "
0F
#6819
1F
#6820
b100110111011 :
0F
#6923
1F
#6924
b100110101001 .
0F
#7027
1F
#7028
b11110010011 "
0F
#7131
1F
#7132
b100101000000 :
0F
#7235
1F
#7236
b100011110110 .
0F
#7339
1F
#7340
b11110100101 "
0F
#7443
1F
#7444
b100001000110 :
0F
#7547
1F
#7548
b11111101010 .
0F
#7651
1F
#7652
b11101111110 "
0F
#7755
1F
#7756
b11100110100 :
0F
#7859
1F
#7860
b11011010001 .
0F
#7963
1F
#7964
b11100110010 "
0F
#8067
1F
#8068
b11010010001 :
0F
#8171
1F
#8172
b11010000010 .
0F
